{
  "formatVersion": 1,
  "database": {
    "version": 1,
    "identityHash": "99831a272df6df79b6a082adcb5f3313",
    "entities": [
      {
        "tableName": "pedido",
        "createSql": "CREATE TABLE IF NOT EXISTS `${TABLE_NAME}` (`idPedido` TEXT NOT NULL, `pedidoName` TEXT, PRIMARY KEY(`idPedido`))",
        "fields": [
          {
            "fieldPath": "idPedido",
            "columnName": "idPedido",
            "affinity": "TEXT",
            "notNull": true
          },
          {
            "fieldPath": "pedidoName",
            "columnName": "pedidoName",
            "affinity": "TEXT",
            "notNull": false
          }
        ],
        "primaryKey": {
          "columnNames": [
            "idPedido"
          ],
          "autoGenerate": false
        },
        "indices": [],
        "foreignKeys": []
      }
    ],
    "setupQueries": [
      "CREATE TABLE IF NOT EXISTS room_master_table (id INTEGER PRIMARY KEY,identity_hash TEXT)",
      "INSERT OR REPLACE INTO room_master_table (id,identity_hash) VALUES(42, \"99831a272df6df79b6a082adcb5f3313\")"
    ]
  }
}